{
    "modules": [],
    "properties": {
        "backendModules": [],
        "description": "",
        "emConf": {
            "category": "plugin",
            "custom_category": "",
            "dependsOn": "typo3 => 9.5.0-9.5.99\n",
            "disableLocalization": false,
            "disableVersioning": false,
            "skipGenerateDocumentationTemplate": false,
            "sourceLanguage": "en",
            "state": "alpha",
            "targetVersion": "9.5.0-9.5.99",
            "version": "1.0.0"
        },
        "extensionKey": "iwansonsstuff",
        "name": "iwansonsStuff",
        "originalExtensionKey": "",
        "originalVendorName": "",
        "persons": [
            {
                "company": "",
                "email": "christian.oettinger@gmx.de",
                "name": "dasoe",
                "role": "Developer"
            }
        ],
        "plugins": [],
        "vendorName": "Dasoe"
    },
    "wires": [],
    "log": {
        "last_modified": "2020-01-07 12:37",
        "extension_builder_version": "9.10.2",
        "be_user": " (2)"
    }
}