<?xml version="1.0" encoding="utf-8"?>
<!-- Generator: Adobe Illustrator 24.0.1, SVG Export Plug-In . SVG Version: 6.00 Build 0)  -->
<svg version="1.1" id="Ebene_1" xmlns="http://www.w3.org/2000/svg" xmlns:xlink="http://www.w3.org/1999/xlink" x="0px" y="0px"
	 viewBox="0 0 285.09 70.47" style="enable-background:new 0 0 285.09 70.47;" xml:space="preserve">
<style type="text/css">
	.st0{fill:#39FF14;}
	.st1{fill:none;stroke:#39FF14;stroke-width:1.4;}
	.st2{fill:none;stroke:#39FF14;stroke-width:1.4;stroke-miterlimit:3.8637;}
</style>
<g>
	<path class="st0" d="M124.26,55.78c-0.84,0-1.49-0.22-1.93-0.66c-0.44-0.44-0.66-1.05-0.66-1.83v-2.35c0-0.8,0.22-1.41,0.66-1.84
		s1.08-0.65,1.91-0.65c0.76,0,1.34,0.2,1.74,0.6c0.4,0.4,0.64,1.03,0.72,1.89l-1.55,0.11c-0.03-0.54-0.12-0.91-0.26-1.09
		c-0.14-0.18-0.37-0.28-0.69-0.28c-0.32,0-0.56,0.09-0.71,0.28c-0.15,0.19-0.23,0.53-0.23,1.03v2.27c0,0.47,0.08,0.81,0.23,1
		c0.15,0.19,0.4,0.29,0.73,0.29c0.32,0,0.55-0.08,0.69-0.22s0.22-0.45,0.24-0.91l1.55,0.09c-0.04,0.78-0.26,1.35-0.66,1.72
		C125.65,55.6,125.05,55.78,124.26,55.78z"/>
	<path class="st0" d="M132.4,55.78c-0.78,0-1.39-0.22-1.84-0.65c-0.45-0.43-0.67-1.03-0.67-1.8v-2.39c0-0.78,0.22-1.39,0.67-1.83
		s1.06-0.66,1.84-0.66s1.39,0.22,1.83,0.67c0.44,0.45,0.66,1.06,0.66,1.84v2.39c0,0.76-0.22,1.35-0.66,1.79
		C133.79,55.56,133.18,55.78,132.4,55.78z M132.4,54.55c0.31,0,0.53-0.1,0.68-0.29c0.15-0.19,0.22-0.51,0.22-0.96v-2.33
		c0-0.46-0.07-0.79-0.22-0.99c-0.15-0.2-0.37-0.31-0.68-0.31c-0.32,0-0.55,0.1-0.69,0.31c-0.15,0.21-0.22,0.54-0.22,0.99v2.3
		c0,0.46,0.07,0.78,0.22,0.98C131.86,54.45,132.09,54.55,132.4,54.55z"/>
	<path class="st0" d="M138.1,55.66v-7.09h1.6v0.97h0.27c0.14-0.34,0.35-0.61,0.63-0.8c0.28-0.19,0.59-0.29,0.93-0.29
		c0.5,0,0.88,0.19,1.16,0.56c0.28,0.37,0.41,0.89,0.41,1.55v5.11h-1.59v-4.82c0-0.35-0.06-0.63-0.18-0.82
		c-0.12-0.19-0.29-0.28-0.51-0.28c-0.22,0-0.43,0.08-0.62,0.22c-0.19,0.15-0.36,0.37-0.5,0.66v5.03H138.1z"/>
	<path class="st0" d="M149.84,55.78c-0.71,0-1.26-0.21-1.66-0.63c-0.4-0.42-0.6-0.99-0.6-1.71v-3.65h-1.3v-1.22h1.3v-2.36h1.6v2.36
		h2.02v1.22h-2.02v3.54c0,0.38,0.07,0.67,0.22,0.87c0.15,0.2,0.36,0.3,0.66,0.3c0.21,0,0.4-0.03,0.58-0.08
		c0.19-0.05,0.34-0.1,0.47-0.16l0.18,1.23c-0.14,0.07-0.35,0.14-0.61,0.2C150.39,55.75,150.12,55.78,149.84,55.78z"/>
	<path class="st0" d="M159.57,54.07c-0.17,0.6-0.43,1.03-0.8,1.31c-0.37,0.27-0.92,0.41-1.65,0.41c-0.8,0-1.43-0.21-1.89-0.64
		s-0.7-1.04-0.7-1.83v-2.42c0-0.78,0.23-1.38,0.69-1.8c0.46-0.42,1.06-0.63,1.82-0.63c0.77,0,1.38,0.22,1.83,0.65
		c0.44,0.43,0.67,1.07,0.67,1.9v1.41h-3.4v0.96c0,0.44,0.08,0.76,0.24,0.97s0.43,0.31,0.8,0.31c0.32,0,0.55-0.07,0.71-0.22
		c0.16-0.15,0.28-0.39,0.36-0.74L159.57,54.07z M156.12,50.82v0.63h1.81v-0.57c0-0.47-0.07-0.81-0.21-1.01
		c-0.14-0.2-0.37-0.3-0.69-0.3s-0.56,0.1-0.7,0.29C156.19,50.05,156.12,50.37,156.12,50.82z"/>
	<path class="st0" d="M164.25,50.42v5.25h-1.31v-7.09h1.3v0.89h0.26c0.09-0.34,0.22-0.59,0.38-0.75c0.16-0.16,0.36-0.24,0.6-0.24
		c0.22,0,0.4,0.08,0.55,0.24c0.15,0.16,0.25,0.41,0.3,0.76h0.24c0.09-0.34,0.23-0.59,0.4-0.75c0.17-0.16,0.39-0.24,0.65-0.24
		c0.32,0,0.57,0.14,0.73,0.42s0.24,0.7,0.24,1.25v5.53h-1.31v-5.33c0-0.25-0.02-0.44-0.07-0.57c-0.04-0.13-0.12-0.19-0.22-0.19
		c-0.12,0-0.23,0.08-0.33,0.23c-0.1,0.15-0.2,0.36-0.28,0.62v5.25h-1.23v-5.33c0-0.25-0.02-0.44-0.07-0.57
		c-0.05-0.13-0.12-0.19-0.22-0.19c-0.11,0-0.21,0.07-0.31,0.22C164.44,49.94,164.35,50.15,164.25,50.42z"/>
	<path class="st0" d="M175.3,55.77c-0.21,0-0.42-0.03-0.62-0.08c-0.2-0.05-0.39-0.13-0.57-0.24v2.58h-1.6v-9.46h1.6v0.97h0.27
		c0.09-0.35,0.28-0.62,0.54-0.8c0.27-0.19,0.6-0.28,0.99-0.28c0.51,0,0.91,0.2,1.18,0.58c0.28,0.39,0.41,0.94,0.41,1.66v2.61
		c0,0.76-0.2,1.36-0.59,1.8C176.53,55.55,175.99,55.77,175.3,55.77z M175.05,54.56c0.31,0,0.53-0.1,0.67-0.3s0.21-0.53,0.21-0.97
		v-2.47c0-0.37-0.06-0.64-0.19-0.82c-0.13-0.17-0.3-0.26-0.52-0.26c-0.2,0-0.39,0.07-0.58,0.2c-0.19,0.13-0.36,0.35-0.51,0.64v3.57
		c0.17,0.14,0.32,0.25,0.47,0.31S174.89,54.56,175.05,54.56z"/>
	<path class="st0" d="M183.25,55.78c-0.78,0-1.39-0.22-1.84-0.65c-0.45-0.43-0.67-1.03-0.67-1.8v-2.39c0-0.78,0.22-1.39,0.67-1.83
		s1.06-0.66,1.84-0.66s1.39,0.22,1.83,0.67c0.44,0.45,0.66,1.06,0.66,1.84v2.39c0,0.76-0.22,1.35-0.66,1.79
		C184.64,55.56,184.03,55.78,183.25,55.78z M183.25,54.55c0.31,0,0.53-0.1,0.68-0.29c0.15-0.19,0.22-0.51,0.22-0.96v-2.33
		c0-0.46-0.07-0.79-0.22-0.99c-0.15-0.2-0.37-0.31-0.68-0.31c-0.32,0-0.55,0.1-0.69,0.31c-0.15,0.21-0.22,0.54-0.22,0.99v2.3
		c0,0.46,0.07,0.78,0.22,0.98C182.7,54.45,182.93,54.55,183.25,54.55z"/>
	<path class="st0" d="M189.17,55.66v-7.09h1.61v1.15h0.27c0.12-0.44,0.32-0.76,0.6-0.96c0.28-0.2,0.61-0.3,0.99-0.3
		c0.45,0,0.8,0.17,1.04,0.51s0.37,0.82,0.37,1.44v1.18h-1.45V50.9c0-0.42-0.05-0.71-0.15-0.89c-0.1-0.18-0.28-0.27-0.53-0.27
		c-0.22,0-0.43,0.08-0.63,0.24c-0.2,0.16-0.36,0.41-0.49,0.75v4.93H189.17z"/>
	<path class="st0" d="M198.33,55.78c-0.53,0-0.95-0.18-1.27-0.56c-0.32-0.37-0.48-0.86-0.48-1.48c0-0.64,0.17-1.13,0.51-1.48
		s0.8-0.53,1.38-0.53h1.33v-1.08c0-0.34-0.07-0.59-0.21-0.76c-0.14-0.17-0.35-0.25-0.64-0.25c-0.29,0-0.5,0.08-0.64,0.25
		c-0.13,0.17-0.24,0.47-0.31,0.92l-1.3-0.28c0.13-0.72,0.37-1.25,0.74-1.59c0.37-0.33,0.89-0.5,1.55-0.5c0.73,0,1.3,0.17,1.71,0.5
		c0.41,0.33,0.62,0.86,0.62,1.6v3.19c0,0.35,0.07,0.58,0.21,0.68c0.14,0.1,0.35,0.11,0.64,0.03v1.23c-0.51,0.1-0.91,0.07-1.21-0.09
		c-0.29-0.17-0.48-0.47-0.58-0.92h-0.24c-0.17,0.31-0.42,0.58-0.75,0.8C199.08,55.67,198.72,55.78,198.33,55.78z M198.73,54.65
		c0.22,0,0.42-0.05,0.6-0.16c0.18-0.11,0.34-0.28,0.48-0.53v-1.25h-1.09c-0.24,0-0.42,0.07-0.53,0.21
		c-0.11,0.14-0.16,0.39-0.16,0.76c0,0.32,0.05,0.56,0.17,0.72C198.31,54.56,198.49,54.65,198.73,54.65z"/>
	<path class="st0" d="M205.34,55.66v-7.09h1.61v1.15h0.27c0.12-0.44,0.32-0.76,0.6-0.96c0.28-0.2,0.61-0.3,0.99-0.3
		c0.45,0,0.8,0.17,1.04,0.51s0.37,0.82,0.37,1.44v1.18h-1.45V50.9c0-0.42-0.05-0.71-0.15-0.89c-0.1-0.18-0.28-0.27-0.53-0.27
		c-0.22,0-0.43,0.08-0.63,0.24c-0.2,0.16-0.36,0.41-0.49,0.75v4.93H205.34z"/>
	<path class="st0" d="M214.45,58.12c-0.2,0-0.41-0.01-0.63-0.04c-0.22-0.02-0.45-0.05-0.7-0.09l0.11-1.22
		c0.21,0.05,0.41,0.08,0.58,0.11c0.17,0.03,0.33,0.04,0.46,0.04c0.37,0,0.65-0.1,0.85-0.3c0.19-0.2,0.34-0.51,0.44-0.94l0.04-0.15
		h-1.04l-1.52-6.96h1.63l1.18,5.73l1.21-5.73h1.57l-1.64,7.23c-0.2,0.83-0.51,1.42-0.93,1.78
		C215.63,57.94,215.09,58.12,214.45,58.12z"/>
	<path class="st0" d="M232.64,54.68c-0.1,0.32-0.28,0.58-0.53,0.79c-0.25,0.21-0.57,0.31-0.95,0.31c-0.54,0-0.96-0.22-1.24-0.65
		c-0.28-0.43-0.43-1-0.43-1.71v-2.49c0-0.77,0.2-1.37,0.59-1.81c0.39-0.43,0.94-0.65,1.63-0.65c0.21,0,0.41,0.03,0.62,0.08
		c0.2,0.05,0.39,0.13,0.57,0.24v-2.58h1.59v9.45h-1.59v-0.98H232.64z M231.81,54.48c0.22,0,0.42-0.07,0.6-0.2
		c0.18-0.13,0.34-0.34,0.49-0.63v-3.58c-0.16-0.15-0.31-0.26-0.46-0.32c-0.15-0.06-0.3-0.09-0.46-0.09c-0.32,0-0.54,0.1-0.68,0.3
		s-0.21,0.53-0.21,0.98v2.35c0,0.4,0.06,0.7,0.18,0.9C231.39,54.38,231.57,54.48,231.81,54.48z"/>
	<path class="st0" d="M239.27,55.78c-0.53,0-0.95-0.18-1.27-0.56c-0.32-0.37-0.48-0.86-0.48-1.48c0-0.64,0.17-1.13,0.51-1.48
		s0.8-0.53,1.38-0.53h1.33v-1.08c0-0.34-0.07-0.59-0.21-0.76c-0.14-0.17-0.35-0.25-0.64-0.25c-0.29,0-0.5,0.08-0.64,0.25
		c-0.13,0.17-0.24,0.47-0.31,0.92l-1.3-0.28c0.13-0.72,0.37-1.25,0.74-1.59c0.37-0.33,0.89-0.5,1.55-0.5c0.73,0,1.3,0.17,1.71,0.5
		c0.41,0.33,0.62,0.86,0.62,1.6v3.19c0,0.35,0.07,0.58,0.21,0.68c0.14,0.1,0.35,0.11,0.64,0.03v1.23c-0.51,0.1-0.91,0.07-1.21-0.09
		c-0.29-0.17-0.48-0.47-0.58-0.92h-0.24c-0.17,0.31-0.42,0.58-0.75,0.8C240.02,55.67,239.66,55.78,239.27,55.78z M239.67,54.65
		c0.22,0,0.42-0.05,0.6-0.16c0.18-0.11,0.34-0.28,0.48-0.53v-1.25h-1.09c-0.24,0-0.42,0.07-0.53,0.21
		c-0.11,0.14-0.16,0.39-0.16,0.76c0,0.32,0.05,0.56,0.17,0.72C239.25,54.56,239.43,54.65,239.67,54.65z"/>
	<path class="st0" d="M245.92,55.66v-7.09h1.6v0.97h0.27c0.14-0.34,0.35-0.61,0.63-0.8c0.28-0.19,0.59-0.29,0.93-0.29
		c0.5,0,0.88,0.19,1.16,0.56c0.28,0.37,0.41,0.89,0.41,1.55v5.11h-1.59v-4.82c0-0.35-0.06-0.63-0.18-0.82
		c-0.12-0.19-0.29-0.28-0.51-0.28c-0.22,0-0.43,0.08-0.62,0.22c-0.19,0.15-0.36,0.37-0.5,0.66v5.03H245.92z"/>
	<path class="st0" d="M256.72,55.78c-0.84,0-1.49-0.22-1.93-0.66c-0.44-0.44-0.66-1.05-0.66-1.83v-2.35c0-0.8,0.22-1.41,0.66-1.84
		s1.08-0.65,1.91-0.65c0.76,0,1.34,0.2,1.74,0.6c0.4,0.4,0.64,1.03,0.72,1.89l-1.55,0.11c-0.03-0.54-0.12-0.91-0.26-1.09
		c-0.14-0.18-0.37-0.28-0.69-0.28c-0.32,0-0.56,0.09-0.71,0.28c-0.15,0.19-0.23,0.53-0.23,1.03v2.27c0,0.47,0.08,0.81,0.23,1
		c0.15,0.19,0.4,0.29,0.73,0.29c0.32,0,0.55-0.08,0.69-0.22s0.22-0.45,0.24-0.91l1.55,0.09c-0.04,0.78-0.26,1.35-0.66,1.72
		C258.12,55.6,257.52,55.78,256.72,55.78z"/>
	<path class="st0" d="M267.27,54.07c-0.17,0.6-0.43,1.03-0.8,1.31c-0.37,0.27-0.92,0.41-1.65,0.41c-0.8,0-1.43-0.21-1.89-0.64
		s-0.7-1.04-0.7-1.83v-2.42c0-0.78,0.23-1.38,0.69-1.8c0.46-0.42,1.06-0.63,1.82-0.63c0.77,0,1.38,0.22,1.83,0.65
		c0.44,0.43,0.67,1.07,0.67,1.9v1.41h-3.4v0.96c0,0.44,0.08,0.76,0.24,0.97s0.43,0.31,0.8,0.31c0.32,0,0.55-0.07,0.71-0.22
		c0.16-0.15,0.28-0.39,0.36-0.74L267.27,54.07z M263.82,50.82v0.63h1.81v-0.57c0-0.47-0.07-0.81-0.21-1.01
		c-0.14-0.2-0.37-0.3-0.69-0.3s-0.56,0.1-0.7,0.29C263.89,50.05,263.82,50.37,263.82,50.82z"/>
</g>
<g>
	<rect x="18.16" y="19.33" class="st1" width="9.5" height="18.61"/>
	<polygon class="st1" points="32.91,19.33 42.51,37.94 51.11,37.94 56.69,25.89 56.79,25.89 62.38,37.94 70.72,37.94 80.58,19.33 
		70.98,19.33 65.9,31.48 65.8,31.48 60.41,19.33 53.12,19.33 47.64,31.42 47.54,31.42 42.56,19.33 	"/>
	<polygon class="st1" points="122.16,37.94 131.26,37.94 131.01,26.65 131.11,26.62 145.29,37.94 153.54,37.94 153.54,19.33 
		144.44,19.33 144.84,30.97 144.74,31.02 130.36,19.33 122.16,19.33 	"/>
	<path class="st1" d="M185.38,24.76c-0.1-1.06-0.25-2.31-2.46-3.67c-2.41-1.43-6.39-2.11-10.06-2.11c-6.23,0-13.02,1.99-13.02,5.48
		s6.49,4.8,9.1,5.33c5.73,1.21,7.29,1.51,7.29,2.74c0,0.85-1.36,1.79-3.62,1.79c-1.21,0-3.87-0.38-3.87-2.54h-9.46v0.6
		c0,2.39,2.67,5.91,13.43,5.91c9.86,0,12.97-2.99,12.97-5.71c0-2.16-1.76-3.77-8.7-5.33c-6.69-1.51-7.7-1.74-7.7-2.84
		c0-0.88,1.61-1.46,3.27-1.46c2.91,0,3.22,1.18,3.42,1.81H185.38z"/>
	<path class="st1" d="M191.13,24.89c-1.11,1.36-1.46,2.74-1.46,3.97c0,4.78,7.85,9.43,19.56,9.43c11.57,0,19.71-4.48,19.71-9.66
		c0-5.18-8.2-9.66-19.66-9.66C198.87,18.98,193.09,22.47,191.13,24.89z M199.17,28.58c0-2.62,3.57-5.43,10.16-5.43
		c6.84,0,10.11,3.09,10.11,5.51c0,2.39-3.27,5.46-10.01,5.46C203.05,34.12,199.17,31.45,199.17,28.58z"/>
	<polygon class="st1" points="235.15,37.94 244.25,37.94 244,26.65 244.1,26.62 258.28,37.94 266.53,37.94 266.53,19.33 
		257.43,19.33 257.83,30.97 257.73,31.02 243.35,19.33 235.15,19.33 	"/>
	<path class="st2" d="M105.14,35.25l1.81,2.69h10.31l-14.79-18.61h-7.49L80.05,37.94h10.21l1.96-2.69H105.14z M98.66,25.11h0.1h0.05
		l3.82,6.36h-7.79L98.66,25.11z"/>
</g>
</svg>
